VERSION		EQU	1
REVISION	EQU	14

DATE	MACRO
		dc.b '22.9.2023'
		ENDM

VERS	MACRO
		dc.b 'Codecraft 1.14'
		ENDM

VSTRING	MACRO
		dc.b 'Codecraft 1.14 (22.9.2023)',13,10,0
		ENDM

VERSTAG	MACRO
		dc.b 0,'$VER: Codecraft 1.14 (22.9.2023)',0
		ENDM
